{
    "model": "courseClasses",
    "components": [
      {
        "type": "fieldset",
        "legend": "Course Details",
        "components": [
          {
            "customClass": "text-dark",
            "hideLabel": true,
            "type": "columns",
            "input": false,
            "columns": [
              {

                "components": [
                  {
                    "label": "Display Code",
                    "labelPosition": "top",
                    "disabled": true,
                    "widget": {
                      "type": "input"
                    },
                    "validate": {
                      "required": false
                    },
                    "key": "course.displayCode",
                    "type": "number",
                    "input": true
                  }
                ],
                "width": 2

              },
              {

                "components": [
                  {
                    "label": "Course Name",
                    "labelPosition": "top",
                    "disabled": true,
                    "widget": {
                      "type": "input"
                    },
                    "validate": {
                      "required": false
                    },
                    "key": "course.name",
                    "type": "textfield",
                    "input": true
                  }
                ],
                "width": 5

              },
              {

                "components": [
                  {
                    "label": "Department Name",
                    "labelPosition": "top",
                    "disabled": true,
                    "widget": "choicesjs",
                    "dataSrc": "url",
                    "data": {
                      "url": "LocalDepartments/?$select=id,name",
                      "headers": []
                    },
                    "searchFields": ["id"],
                    "template": "<span class='d-block pr-5 text-truncate'>{{ item.name }}</span>",
                    "selectThreshold": 0.3,
                    "selectValues": "value",
                    "key": "course.department",
                    "type": "select",
                    "input": true,
                    "validate": {
                      "required": false
                    }
                  }
                ],
                "width": 5
      

              }
            ]

          }
        ]

      },
      {
        "type": "fieldset",
        "legend": "Classes Details",
        "components": [
          {
            "customClass": "text-dark",
            "hideLabel": true,
            "type": "columns",
            "input": false,
            "columns": [
              {

                "components": [
                  {
                    "label": "Class ID",
                    "labelPosition": "top",
                    "disabled": true,
                    "widget": {
                      "type": "input"
                    },
                    "validate": {
                      "required": false
                    },
                    "key": "id",
                    "type": "number",
                    "input": true
                  }
                ],
                "width": 2

              },
              {

                "components": [
                  {
                    "label": "Class Title",
                    "labelPosition": "top",
                    "widget": {
                      "type": "input"
                    },
                    "validate": {
                      "required": true
                    },
                    "key": "title",
                    "type": "textfield",
                    "input": true
                  }
                ],
                "width": 5

              },
              {

                "components": [
                  {
                    "label": "Period",
                    "labelPosition": "top",
                    "widget": "choicesjs",
                    "dataSrc": "url",
                    "data": {
                      "url": "AcademicPeriods/?$select=id,name,alternateName",
                      "headers": []
                    },
                    "searchFields": ["id", "name"],
                    "template": "<span class='d-block pr-5 text-truncate'>{{ item.name }}</span>",
                    "selectValues": "value",
                    "key": "period.id",
                    "valueProperty": "id",
                    "type": "select",
                    "lazyLoad": false,
                    "input": true,
                    "validate": {
                      "required": true
                    }
                  }
                ],
                "width": 2
      

              },
              {

                "components": [
                  {
                    "label": "Academic Year",
                    "labelPosition": "top",
                    "widget": "choicesjs",
                    "dataSrc": "url",
                    "data": {
                      "url": "AcademicYears/?$top=-1&$select=id,name",
                      "headers": []
                    },
                    "searchFields": ["id", "name"],
                    "template": "<span class='d-block pr-5 text-truncate'>{{ item.name }}</span>",
                    "selectValues": "value",
                    "key": "year.id",
                    "valueProperty": "id",
                    "type": "select",
                    "lazyLoad": false,
                    "input": true,
                    "validate": {
                      "required": true
                    }
                  }
                ],
                "width": 3

              }

            ]

          },
          {

            "customClass": "text-dark",
            "hideLabel": true,
            "type": "columns",
            "input": false,
            "columns": [
              {

                "components": [
                  {
                    "label": "Status",
                    "labelPosition": "top",
                    "widget": "choicesjs",
                    "dataSrc": "url",
                    "data": {
                      "url": "ClassStatuses/?$select=id,name,alternateName",
                      "headers": []
                    },
                    "searchFields": ["id", "name"],
                    "template": "<span class='d-block pr-5 text-truncate'>{{ item.name }}</span>",
                    "selectValues": "value",
                    "key": "status.id",
                    "valueProperty": "id",
                    "lazyLoad": false,
                    "type": "select",
                    "input": true,
                    "validate": {
                      "required": true
                    }
                  }
                ],
                "width": 3

              }
            ]

          }

          
        ]

      },
      {
        "type": "fieldset",
        "legend": "Teaching Details",
        "components": [
          {
            "customClass": "text-dark",
            "hideLabel": true,
            "type": "columns",
            "input": false,
            "columns": [
              {

                "components": [
                  {
                    "label": "Number of Students",
                    "labelPosition": "top",
                    "widget": {
                      "type": "input"
                    },
                    "validate": {
                      "required": false,
                      "integer": true,
                      "min": 0
                    },
                    "key": "numberOfStudents",
                    "type": "number",
                    "input": true
                  }
                ],
                "width": 3

              },
              {

                "components": [
                  {
                    "label": "Max Number of Students",
                    "labelPosition": "top",
                    "widget": {
                      "type": "input"
                    },
                    "validate": {
                      "required": false,
                      "integer": true,
                      "min": 0
                    },
                    "key": "maxNumberOfStudents",
                    "type": "number",
                    "input": true
                  }
                ],
                "width": 3

              },
              {

                "components": [
                  {
                    "label": "Week Hours",
                    "labelPosition": "top",
                    "widget": {
                      "type": "input"
                    },
                    "validate": {
                      "required": false,
                      "integer": true,
                      "min": 0
                    },
                    "key": "weekHours",
                    "type": "number",
                    "input": true
                  }
                ],
                "width": 3

              },
              {

                "components": [
                  {
                    "label": "Total Hours",
                    "labelPosition": "top",
                    "widget": {
                      "type": "input"
                    },
                    "validate": {
                      "required": false,
                      "integer": true,
                      "min": 0
                    },
                    "key": "totalHours",
                    "type": "number",
                    "input": true
                  }
                ],
                "width": 3

              }
            ]

          }
        ]

      },
      {
        "type": "button",
        "label": "Submit",
        "key": "submit",
        "disableOnInvalid": true,
        "input": true
		  }

    ]
  }
  