{
    "model": "ProgramCourses",
    "title": "Study program course - Edit",
    "display": "form",
    "settings": {
        "pdf": {
            "id": "1ec0f8ee-6685-5d98-a847-26f67b67d6f0"
        },
        "i18n": {
            "el": {
                "Study program course - Edit": "Μάθημα προγράμματος σπουδών - Επεξεργασία",
                "General": "Γενικά",
                "Course": "Μάθημα",
                "Type": "Τύπος",
                "Units": "Διδακτικές μονάδες",
                "ECTS": "ECTS"
            }
        }
    },
    "components": [
        {
            "legend": "General",
            "tableView": false,
            "key": "fieldset",
            "type": "fieldset",
            "label": "B",
            "input": false,
            "components": [
                {
                    "label": "Columns",
                    "columns": [
                        {
                            "components": [
                                {
                                    "label": "Course",
                                    "spellcheck": true,
                                    "tableView": true,
                                    "validate": {
                                        "unique": false,
                                        "multiple": false
                                    },
                                    "key": "course.name",
                                    "type": "textfield",
                                    "disabled": true,
                                    "input": false,
                                    "hideOnChildrenHidden": false
                                },
                                {
                                    "label": "Type",
                                    "labelPosition": "top",
                                    "widget": "choicesjs",
                                    "dataSrc": "url",
                                    "data": {
                                        "url": "CourseTypes?$orderby=name",
                                        "headers": []
                                    },
                                    "template": "<span class='col-4 text-truncate'>{{ item.name }}</span>",
                                    "selectValues": "value",
                                    "key": "courseType",
                                    "searchEnabled": false,
                                    "type": "select",
                                    "input": true,
                                    "lazyLoad": false
                                }
                            ],
                            "width": 6,
                            "offset": 0,
                            "push": 0,
                            "pull": 0
                        },
                        {
                            "components": [
                                {
                                    "label": "Semester",
                                    "labelPosition": "top",
                                    "widget": "choicesjs",
                                    "dataSrc": "url",
                                    "data": {
                                        "url": "Semesters?$orderby=id",
                                        "headers": []
                                    },
                                    "template": "<span class='col-4 text-truncate'>{{ item.name }}</span>",
                                    "selectValues": "value",
                                    "key": "semester",
                                    "searchEnabled": false,
                                    "type": "select",
                                    "input": true,
                                    "lazyLoad": false
                                },
                                {
                                    "label": "Units",
                                    "mask": false,
                                    "spellcheck": true,
                                    "tableView": false,
                                    "delimiter": false,
                                    "requireDecimal": false,
                                    "inputFormat": "plain",
                                    "validate": {
                                        "unique": false,
                                        "multiple": false,
                                        "required": true
                                    },
                                    "key": "units",
                                    "type": "number",
                                    "input": true,
                                    "hideOnChildrenHidden": false
                                },
                                {
                                    "label": "ECTS",
                                    "mask": false,
                                    "spellcheck": true,
                                    "tableView": false,
                                    "delimiter": false,
                                    "requireDecimal": false,
                                    "inputFormat": "plain",
                                    "validate": {
                                        "unique": false,
                                        "multiple": false,
                                        "required": true
                                    },
                                    "key": "ects",
                                    "type": "number",
                                    "input": true,
                                    "hideOnChildrenHidden": false
                                }
                            ],
                            "width": 6,
                            "offset": 0,
                            "push": 0,
                            "pull": 0
                        }
                    ],
                    "tableView": false,
                    "key": "columns",
                    "type": "columns",
                    "input": false,
                    "path": "columns"
                }
            ],
            "path": "fieldset"
        },
        {
            "type": "button",
            "label": "Submit",
            "key": "submit",
            "theme":"indigo",
            "disableOnInvalid": true,
            "input": true,
            "tableView": false,
            "validate": {
                "unique": false,
                "multiple": false
            }
        }
    ]
}
