{
  "title": "Students",
  "model": "Students",
  "searchExpression":"indexof(studentIdentifier, '${text}') ge 0 or indexof(person/familyName, '${text}') ge 0 or indexof(person/givenName, '${text}') ge 0 or indexof(studyProgram/name, '${text}') ge 0 or indexof(studentStatus/name, '${text}') ge 0)",
  "columns": [
    {
      "name":"studyProgram",
      "property": "studyProgramId",
      "hidden": true
    },
    {
      "name":"id",
      "property": "id",
      "formatter": "ActionLinkFormatter",
      "actions" : [
        {
          "title": "Students.Preview",
          "href": "#/students/${id}/dashboard"
        },
        {
          "title": "Students.Edit",
          "href": "#/students/${id}/edit"
        },
        {
          "title": "Students.Remove",
          "href": "#/students/${id}/remove"
        }
      ]
    },
    {
      "name":"studentIdentifier",
      "property": "studentIdentifier",
      "title":"Students.studentIdentifier"
    },
    {
      "name":"person/familyName",
      "property": "familyName",
      "title":"Students.fullName",
      "formatter": "TemplateFormatter",
      "formatString": "${familyName} ${givenName}"
    },
    {
      "name":"person/givenName",
      "property": "givenName",
      "title":"Students.GivenName",
      "hidden": true
    },
    {
      "name":"department/name",
      "property": "departmentName",
      "title":"Students.Department",
      "hidden": true
    },
    {
      "name":"studyProgram/abbreviation",
      "property": "studyProgram",
      "title":"Students.studyProgram"
    },
    {
      "name":"semester",
      "property": "semester",
      "title":"Students.semester"
    },
    {
      "name":"removalDate",
      "property": "removalDate",
      "title":"Students.RemovalDate",
      "formatter": "DateTimeFormatter",
      "formatString": "shortDate"
    },
    {
      "name":"removalNumber",
      "property": "removalNumber",
      "title":"Students.RemovalNumber",
      "hidden": true
    },
    {
      "name":"removalYear/alternateName",
      "property": "removalYear",
      "title":"Students.RemovalYear"
    },
    {
      "name":"removalPeriod/alternateName",
      "property": "removalPeriod",
      "title":"Students.RemovalPeriod",
      "formatter": "TranslationFormatter",
      "formatString": "Periods.${value}"
    }
  ],
  "criteria": [
    {
      "name": "departmentName",
      "filter": "(indexof(department/name, '${value}') ge 0 )",
      "type": "text"
    },
    {
      "name": "studentName",
      "filter": "(indexof(person/familyName, '${value}') ge 0)",
      "type": "text"
    },
    {
      "name": "removalDecision",
      "filter": "(indexof(removalDecision, '${value}') ge 0)",
      "type": "text"
    },
    {
      "name": "removalNumber",
      "filter": "(indexof(removalNumber, '${value}') ge 0)",
      "type": "text"
    },
    {
      "name": "removalReason",
      "filter": "(indexof(removalReason, '${value}') ge 0)",
      "type": "text"
    },
    {
      "name": "removalYear",
      "filter": "(removalYear/alternateName eq '${value}')",
      "type": "text"
    },
    {
      "name": "removalPeriod",
      "filter": "(removalPeriod/alternateName eq '${value}')",
      "type": "text"
    },
    {
      "name": "semester",
      "filter": "(semester eq '${value}')",
      "type": "text"
    }
  ],
  "defaults":{
    "filter": "(department eq ${currentDepartment} and studentStatus/alternateName eq 'erased')"
  },
  "paths" : []
}
