{
  "title": "Students",
  "model": "Students",
  "searchExpression":"indexof(studentIdentifier, '${text}') ge 0 or indexof(person/familyName, '${text}') ge 0 or indexof(person/givenName, '${text}') ge 0 or indexof(studyProgram/name, '${text}') ge 0 or indexof(studentStatus/name, '${text}') ge 0)",
  "columns": [
    {
      "name":"studyProgram",
      "property": "studyProgramId",
      "hidden": true
    },
    {
      "name":"id",
      "property": "id",
      "formatter": "ActionLinkFormatter",
      "actions" : [
        {
          "title": "Students.Preview",
          "href": "#/students/${id}/dashboard"
        },
        {
          "title": "Students.PreviewStudyProgram",
          "href": "#/study-programs/${studyProgramId}/preview/general"
        },
        {
          "title": "Students.Edit",
          "href": "#/students/${id}/edit"
        },
        {
          "title": "Students.CompleteInscription",
          "href": "#/students/list/(modal:${id}/complete-inscription)"
        },
        {
          "title": "Students.Remove",
          "href": "#/students/${id}/remove"
        },
        {
          "title": "Students.NewInternship",
          "href": "#/students/${id}/dashboard/overview/(modal:/internship/new)"
        }
      ]
    },
    {
      "name":"studentIdentifier",
      "property": "studentIdentifier",
      "title":"Students.studentIdentifier"
    },
    {
      "name":"person/familyName",
      "property": "familyName",
      "title":"Students.fullName",
      "formatter": "TemplateFormatter",
      "formatString": "${familyName} ${givenName}"
    },
    {
      "name":"person/givenName",
      "property": "givenName",
      "title":"Students.GivenName",
      "hidden": true
    },
    {
      "name":"studyProgram/abbreviation",
      "property": "studyProgram",
      "title":"Students.studyProgram"
    },
    {
      "name":"semester",
      "property": "semester",
      "title":"Students.semester"
    },
    {
      "name":"inscriptionYear/alternateName",
      "property": "inscriptionYear",
      "title":"Students.inscriptionYear"
    },
    {
      "name":"inscriptionPeriod/alternateName",
      "property": "inscriptionPeriod",
      "title":"Students.inscriptionPeriod",
      "formatter": "TranslationFormatter",
      "formatString": "Periods.${value}"
    }
  ],
  "criteria": [
    {
      "name": "departmentName",
      "filter": "(indexof(department/name, '${value}') ge 0 )",
      "type": "text"
    },
    {
      "name": "studyProgramName",
      "filter": "(indexof(studyProgram/name, '${value}') ge 0 )",
      "type": "text"
    },
    {
      "name": "studentName",
      "filter": "(indexof(person/familyName, '${value}') ge 0)",
      "type": "text"
    },
    {
      "name": "studentStatus",
      "filter": "(studentStatus/alternateName eq '${value}')",
      "type": "text"
    },
    {
      "name": "inscriptionYear",
      "filter": "(inscriptionYear/alternateName eq '${value}')",
      "type": "text"
    },
    {
      "name": "inscriptionPeriod",
      "filter": "(inscriptionPeriod/alternateName eq '${value}')",
      "type": "text"
    },
    {
      "name": "semester",
      "filter": "(semester eq '${value}')",
      "type": "text"
    },
    {
      "name": "firstYearStudents",
      "filter": "(inscriptionYear eq ${currentYear})",
      "type": "text"
    },
    {
      "name": "status",
      "filter": "(studentStatus/alternateName eq '${value}')",
      "type": "text"
    }
  ],
  "defaults":{
    "filter": "(department eq ${currentDepartment} and studentStatus/alternateName eq 'active')"
  },
  "paths" : [
    {
      "name": "Students.All",
      "show": true,
      "alternateName": "list",
      "filter": {
      }
    },
    {
      "name": "Students.Active",
      "alternateName": "active",
      "show": true,
      "filter": {
          "status": "active"
      }
    },
    {
      "name": "Students.FirstYear",
      "alternateName": "first-year",
      "filter": {
        "firstYearStudents": true
      }
    },
    {
      "name": "Students.Candidates",
      "alternateName": "candidates",
      "filter": {
          "status": "candidate"
      }
    },
    {
      "name": "Students.Declared",
      "alternateName": "declared",
      "filter": {
          "status": "declared"
      }
    },
    {
      "name": "Students.Graduated",
      "alternateName": "graduated",
      "filter": {
          "status": "graduated"
      }
    },
    {
      "name": "Students.Suspended",
      "alternateName": "suspended",
      "filter": {
          "status": "suspended"
      }
    },
    {
      "name": "Students.Removed",
      "alternateName": "removed",
      "filter": {
          "status": "erased"
      }
    }
  ]
}
