{
	"model": "Instructors",
	"components": [
		{
			"type": "fieldset",
			"legend": "User Information",
			"components": [
				{
					"columns": [
						{
							"components": [
								{
									"label": "Given Name",
									"labelPosition": "top",
									"widget": {
										"type": "input"
									},
									"validate": {
										"required": true
									},
									"key": "givenName",
									"type": "textfield",
									"input": true
								}
							],
							"width": 3
						},
						{
							"components": [
								{
									"label": "Family Name",
									"labelPosition": "top",
									"widget": {
										"type": "input"
									},
									"validate": {
										"required": true
									},
									"key": "familyName",
									"type": "textfield",
									"input": true
								}
							],
							"width": 3
						},
						{
							"components": [
								{
									"label": "Middle Name",
									"labelPosition": "top",
									"widget": {
										"type": "input"
									},
									"validate": {
										"required": false
									},
									"key": "middleName",
									"type": "textfield",
									"input": true
								}
							],
							"width": 3
						},
						{
							"components": [
								{
									"label": "Title",
									"labelPosition": "top",
									"widget": {
										"type": "input"
									},
									"validate": {
										"required": false
									},
									"key": "title",
									"type": "textfield",
									"input": true
								}
							],
							"width": 3
						}
					],
					"customClass": "text-dark",
					"hideLabel": true,
					"type": "columns",
					"input": false
				},
				{
					"columns": [
						{
							"components": [
								{
									"label": "AM",
									"labelPosition": "top",
									"disabled": true,
									"widget": {
										"type": "input"
									},
									"validate": {
										"required": false,
										"integer": true
									},
									"key": "id",
									"type": "number",
									"input": true
								}
							],
							"width": 3
						},
						{
							"components": [
								{
									"label": "Username",
									"labelPosition": "top",
									"disabled": true,
									"widget": {
										"type": "input"
									},
									"validate": {
										"required": false
									},
									"key": "user.name",
									"type": "textfield",
									"input": true
								}
							],
							"width": 3
						},
						{
							"components": [
								{
									"label": "Email",
									"labelPosition": "top",
									"widget": {
										"type": "input"
									},
									"validate": {
										"required": false
									},
									"key": "email",
									"type": "email",
									"input": true
								}
							],
							"width": 3
						},
						{
							"components": [
								{
									"label": "Gender",
									"labelPosition": "top",
									"placeholder": "Choose Gender",
									"widget": "choicesjs",
									"searchEnabled": false,
									"template": "<span class='d-block pr-5 text-truncate'>{{ item.name }}</span>",
									"type": "select",
									"input": true,
									"dataSrc": "url",
									"data": {
										"url": "Genders/?$select=id,name,alternateName",
										"headers": []
									},
									"key": "gender.id",
									"valueProperty": "id",
									"lazyLoad": false,
									"defaultValue": "1",
									"selectValues": "value",
									"validate": {
										"required": true
									}
								}
							],
							"width": 3
						}
					],
					"customClass": "text-dark",
					"hideLabel": true,
					"type": "columns",
					"input": false
				}
			]
		},
		{
			"legend": "Rating Information",
			"type": "fieldset",
			"components": [
				{
					"columns": [
						{
							"components": [
								{
									"label": "Active",
									"labelPosition": "top",
									"placeholder": "Choose Status",
									"widget": "choicesjs",
									"searchEnabled": false,
									"template": "<span class='d-block pr-5 text-truncate'>{{ item.name }}</span>",
									"type": "select",
									"input": true,
									"dataSrc": "url",
									"data": {
										"url": "InstructorStatuses/?$select=id,name,alternateName",
										"headers": []
									},
									"key": "status.id",
									"valueProperty": "id",
									"lazyLoad": false,
									"defaultValue": "1",
									"selectValues": "value",
									"validate": {
										"required": true
									}
								}
							],
							"width": 3
						},
						{
							"components": [
								{
									"label": "Department Name",
									"labelPosition": "top",
									"disabled": true,
									"widget": "choicesjs",
									"validate": {
										"required": true
									},
									"dataSrc": "url",
									"data": {
											"url": "LocalDepartments/?$select=id,name",
											"headers": []
									},
									"searchFields": ["id", "name"],
									"template": "<span class='d-block pr-5 text-truncate'>{{ item.name }}</span>",
									"selectValues": "value",
									"valueProperty": "id",
									"lazyLoad": false,
									"key": "department.id",
									"type": "select",
									"input": true
								}
							],
							"width": 6
						},
						{
							"components": [
								{
									"label": "Section",
									"labelPosition": "top",
									"widget": {
										"type": "input"
									},
									"validate": {
										"required": false
									},
									"key": "section",
									"type": "textfield",
									"input": true
								}
							],
							"width": 3
						}
					],
					"customClass": "text-dark",
					"hideLabel": true,
					"type": "columns",
					"input": false
				},
				{
					"columns": [
						{
							"components": [
								{
									"label": "User Number",
									"labelPosition": "top",
									"widget": {
										"type": "input"
									},
									"validate": {
										"required": false,
										"integer": true
									},
									"key": "personCode",
									"type": "number",
									"input": true
								}
							],
							"width": 3
						},
						{
							"components": [
								{
									"label": "Category",
									"labelPosition": "top",
									"widget": {
										"type": "input"
									},
									"validate": {
										"required": true
									},
									"key": "category",
									"type": "textfield",
									"input": true
								}
							],
							"width": 6
						},
						{
							"components": [
								{
									"label": "Specialty",
									"labelPosition": "top",
									"widget": {
										"type": "input"
									},
									"validate": {
										"required": false
									},
									"key": "specialty",
									"type": "textfield",
									"input": true
								}
							],
							"width": 3
						}
					],
					"customClass": "text-dark",
					"hideLabel": true,
					"type": "columns",
					"input": false
				}
			]
		},
		{
			"legend": "Work",
			"type": "fieldset",
			"components": [
				{
					"columns": [
						{
							"components": [
								{
									"label": "University",
									"labelPosition": "top",
									"disabled": true,
									"widget": {
										"type": "input"
									},
									"validate": {
										"required": false
									},
									"key": "department.organization.name",
									"type": "textfield",
									"input": true
								}
							],
							"width": 4
						},
						{
							"components": [
								{
									"label": "URL",
									"labelPosition": "top",
									"disabled": true,
									"widget": {
										"type": "input"
									},
									"validate": {
										"required": false
									},
									"key": "department.organization.url",
									"type": "textfield",
									"input": true
								}
							],
							"width": 4
						},
						{
							"components": [
								{
									"label": "City",
									"labelPosition": "top",
									"disabled": true,
									"widget": {
										"type": "input"
									},
									"validate": {
										"required": false
									},
									"key": "department.city",
									"type": "textfield",
									"input": true
								}
							],
							"width": 4
						}
					],
					"customClass": "text-dark",
					"hideLabel": true,
					"type": "columns",
					"input": false
				}
			]
		},
		{
			"type": "fieldset",
			"legend": "Contact Details",
			"components": [
				{
					"columns": [
						{
							"components": [
								{
									"label": "Home Address",
									"labelPosition": "top",
									"widget": {
										"type": "input"
									},
									"validate": {
										"required": true
									},
									"key": "homeAddress",
									"type": "textfield",
									"input": true
								}
							],
							"width": 3
						},
						{
							"components": [
								{
									"label": "Postal Code",
									"labelPosition": "top",
									"widget": {
										"type": "input"
									},
									"validate": {
										"required": false
									},
									"key": "homePostalCode",
									"type": "textfield",
									"input": true
								}
							],
							"width": 3
						},
						{
							"components": [
								{
									"label": "City",
									"labelPosition": "top",
									"widget": {
										"type": "input"
									},
									"validate": {
										"required": true
									},
									"key": "homeCity",
									"type": "textfield",
									"input": true
								}
							],
							"width": 3
						},
						{
							"components": [
								{
									"label": "Country",
									"labelPosition": "top",
									"disabled": true,
									"widget": "choicesjs",
									"validate": {
										"required": true
									},
									"dataSrc": "url",
									"data": {
											"url": "Countries/?$select=id,name&$top=-1",
											"headers": []
									},
									"searchFields": ["id", "name"],
									"template": "<span class='d-block pr-5 text-truncate'>{{ item.name }}</span>",
									"selectValues": "value",
									"valueProperty": "id",
									"lazyLoad": false,
									"key": "country.id",
									"type": "select",
									"input": true
								}
							],
							"width": 3
						}
					],
					"customClass": "text-dark",
					"hideLabel": true,
					"type": "columns",
					"input": false
				},
				{
					"columns": [
						{
							"components": [
									{
											"label": "Home Phone Number",
											"labelPosition": "top",
											"spellcheck": true,
											"inputMask": "+999999999999",
											"widget": {
													"type": "input"
											},
											"validate": {
													"required": true
											},
											"key": "homePhone",
											"type": "phoneNumber",
											"input": true
									}
							],
							"width": 3
						}
					],
					"customClass": "text-dark",
					"hideLabel": true,
					"type": "columns",
					"input": false
				},
				{
					"columns": [
						{
							"components": [
								{
									"label": "Work Address",
									"labelPosition": "top",
									"widget": {
										"type": "input"
									},
									"validate": {
										"required": true
									},
									"key": "workAddress",
									"type": "textfield",
									"input": true
								}
							],
							"width": 3
						},
						{
							"components": [
								{
									"label": "Postal Code",
									"labelPosition": "top",
									"widget": {
										"type": "input"
									},
									"validate": {
										"required": false
									},
									"key": "workPostalCode",
									"type": "textfield",
									"input": true
								}
							],
							"width": 3
						},
						{
							"components": [
								{
									"label": "City",
									"labelPosition": "top",
									"widget": {
										"type": "input"
									},
									"validate": {
										"required": true
									},
									"key": "workCity",
									"type": "textfield",
									"input": true
								}
							],
							"width": 3
						},
						{
							"components": [
								{
									"label": "Work Country",
									"labelPosition": "top",
									"disabled": true,
									"widget": "choicesjs",
									"validate": {
										"required": true
									},
									"dataSrc": "url",
									"data": {
											"url": "Countries/?$select=id,name&$top=-1",
											"headers": []
									},
									"searchFields": ["id", "name"],
									"template": "<span class='d-block pr-5 text-truncate'>{{ item.name }}</span>",
									"selectValues": "value",
									"valueProperty": "id",
									"lazyLoad": false,
									"key": "workCountry.id",
									"type": "select",
									"input": true
								}
							],
							"width": 3
						}
					],
					"customClass": "text-dark",
					"hideLabel": true,
					"type": "columns",
					"input": false
				},
				{
					"columns": [
						{
							"components": [
									{
											"label": "Work Phone Number",
											"labelPosition": "top",
											"spellcheck": true,
											"inputMask": "+999999999999",
											"widget": {
													"type": "input"
											},
											"validate": {
													"required": true
											},
											"key": "workPhone",
											"type": "phoneNumber",
											"input": true
									}
							],
							"width": 3
						}
					],
					"customClass": "text-dark",
					"hideLabel": true,
					"type": "columns",
					"input": false
				}
			]
		},
		{
			"type": "button",
			"label": "Submit",
			"key": "submit",
			"disableOnInvalid": true,
			"input": true
		}
	]
}
